%YAML 1.1
%TAG !u! tag:unity3d.com,2011:
--- !u!1001 &6042106925865518364
PrefabInstance:
  m_ObjectHideFlags: 0
  serializedVersion: 2
  m_Modification:
    m_TransformParent: {fileID: 0}
    m_Modifications:
    - target: {fileID: 5661977735498010325, guid: c94220a3b7f5e66408f7d1b92773e2d1, type: 3}
      propertyPath: unit
      value: 
      objectReference: {fileID: 11400000, guid: 234202efd8707614795e4352b3263aa4, type: 2}
    - target: {fileID: 5661977735498010326, guid: c94220a3b7f5e66408f7d1b92773e2d1, type: 3}
      propertyPath: m_Name
      value: MeleeTier3CardPrefab
      objectReference: {fileID: 0}
    - target: {fileID: 5661977735498010329, guid: c94220a3b7f5e66408f7d1b92773e2d1, type: 3}
      propertyPath: m_RootOrder
      value: 0
      objectReference: {fileID: 0}
    - target: {fileID: 5661977735498010329, guid: c94220a3b7f5e66408f7d1b92773e2d1, type: 3}
      propertyPath: m_LocalPosition.x
      value: 31.18
      objectReference: {fileID: 0}
    - target: {fileID: 5661977735498010329, guid: c94220a3b7f5e66408f7d1b92773e2d1, type: 3}
      propertyPath: m_LocalPosition.y
      value: 0.68
      objectReference: {fileID: 0}
    - target: {fileID: 5661977735498010329, guid: c94220a3b7f5e66408f7d1b92773e2d1, type: 3}
      propertyPath: m_LocalPosition.z
      value: 17.62
      objectReference: {fileID: 0}
    - target: {fileID: 5661977735498010329, guid: c94220a3b7f5e66408f7d1b92773e2d1, type: 3}
      propertyPath: m_LocalRotation.w
      value: 1
      objectReference: {fileID: 0}
    - target: {fileID: 5661977735498010329, guid: c94220a3b7f5e66408f7d1b92773e2d1, type: 3}
      propertyPath: m_LocalRotation.x
      value: 0
      objectReference: {fileID: 0}
    - target: {fileID: 5661977735498010329, guid: c94220a3b7f5e66408f7d1b92773e2d1, type: 3}
      propertyPath: m_LocalRotation.y
      value: 0
      objectReference: {fileID: 0}
    - target: {fileID: 5661977735498010329, guid: c94220a3b7f5e66408f7d1b92773e2d1, type: 3}
      propertyPath: m_LocalRotation.z
      value: 0
      objectReference: {fileID: 0}
    - target: {fileID: 5661977735498010329, guid: c94220a3b7f5e66408f7d1b92773e2d1, type: 3}
      propertyPath: m_LocalEulerAnglesHint.x
      value: 0
      objectReference: {fileID: 0}
    - target: {fileID: 5661977735498010329, guid: c94220a3b7f5e66408f7d1b92773e2d1, type: 3}
      propertyPath: m_LocalEulerAnglesHint.y
      value: 0
      objectReference: {fileID: 0}
    - target: {fileID: 5661977735498010329, guid: c94220a3b7f5e66408f7d1b92773e2d1, type: 3}
      propertyPath: m_LocalEulerAnglesHint.z
      value: 0
      objectReference: {fileID: 0}
    m_RemovedComponents: []
  m_SourcePrefab: {fileID: 100100000, guid: c94220a3b7f5e66408f7d1b92773e2d1, type: 3}
