%YAML 1.1
%TAG !u! tag:unity3d.com,2011:
--- !u!1001 &1005587627024912688
PrefabInstance:
  m_ObjectHideFlags: 0
  serializedVersion: 2
  m_Modification:
    m_TransformParent: {fileID: 0}
    m_Modifications:
    - target: {fileID: 5191882862054128386, guid: 684c0ec7293baae4cbc02348080723b7, type: 3}
      propertyPath: m_RootOrder
      value: 0
      objectReference: {fileID: 0}
    - target: {fileID: 5191882862054128386, guid: 684c0ec7293baae4cbc02348080723b7, type: 3}
      propertyPath: m_LocalPosition.x
      value: 31.18
      objectReference: {fileID: 0}
    - target: {fileID: 5191882862054128386, guid: 684c0ec7293baae4cbc02348080723b7, type: 3}
      propertyPath: m_LocalPosition.y
      value: 0.68
      objectReference: {fileID: 0}
    - target: {fileID: 5191882862054128386, guid: 684c0ec7293baae4cbc02348080723b7, type: 3}
      propertyPath: m_LocalPosition.z
      value: 17.62
      objectReference: {fileID: 0}
    - target: {fileID: 5191882862054128386, guid: 684c0ec7293baae4cbc02348080723b7, type: 3}
      propertyPath: m_LocalRotation.w
      value: 1
      objectReference: {fileID: 0}
    - target: {fileID: 5191882862054128386, guid: 684c0ec7293baae4cbc02348080723b7, type: 3}
      propertyPath: m_LocalRotation.x
      value: 0
      objectReference: {fileID: 0}
    - target: {fileID: 5191882862054128386, guid: 684c0ec7293baae4cbc02348080723b7, type: 3}
      propertyPath: m_LocalRotation.y
      value: 0
      objectReference: {fileID: 0}
    - target: {fileID: 5191882862054128386, guid: 684c0ec7293baae4cbc02348080723b7, type: 3}
      propertyPath: m_LocalRotation.z
      value: 0
      objectReference: {fileID: 0}
    - target: {fileID: 5191882862054128386, guid: 684c0ec7293baae4cbc02348080723b7, type: 3}
      propertyPath: m_LocalEulerAnglesHint.x
      value: 0
      objectReference: {fileID: 0}
    - target: {fileID: 5191882862054128386, guid: 684c0ec7293baae4cbc02348080723b7, type: 3}
      propertyPath: m_LocalEulerAnglesHint.y
      value: 0
      objectReference: {fileID: 0}
    - target: {fileID: 5191882862054128386, guid: 684c0ec7293baae4cbc02348080723b7, type: 3}
      propertyPath: m_LocalEulerAnglesHint.z
      value: 0
      objectReference: {fileID: 0}
    - target: {fileID: 5191882862054128397, guid: 684c0ec7293baae4cbc02348080723b7, type: 3}
      propertyPath: m_Name
      value: RangeTier2CardPrefab
      objectReference: {fileID: 0}
    - target: {fileID: 5191882862054128398, guid: 684c0ec7293baae4cbc02348080723b7, type: 3}
      propertyPath: unit
      value: 
      objectReference: {fileID: 11400000, guid: d2a13230b10cecc4b96f5733e025a430, type: 2}
    m_RemovedComponents: []
  m_SourcePrefab: {fileID: 100100000, guid: 684c0ec7293baae4cbc02348080723b7, type: 3}
